<?xml version="1.0" standalone="no"?>
<!DOCTYPE svg PUBLIC "-//W3C//DTD SVG 1.1//EN" "http://www.w3.org/Graphics/SVG/1.1/DTD/svg11.dtd" >
<svg xmlns="http://www.w3.org/2000/svg">
<metadata>Generated by IcoMoon</metadata>
<defs>
<font id="iconfont" horiz-adv-x="1024">
<font-face units-per-em="1024" ascent="960" descent="-64" />
<missing-glyph horiz-adv-x="1024" />
<glyph unicode="&#x20;" horiz-adv-x="512" d="" />
<glyph unicode="&#xe900;" glyph-name="administrator" d="M502.989 58.88c-0.129 0-0.281 0-0.434 0-217.393 0-393.626 176.232-393.626 393.626s176.232 393.626 393.626 393.626c217.393 0 393.626-176.232 393.626-393.626 0-108.69-44.053-207.092-115.278-278.323v0c-71.111-71.176-169.36-115.227-277.899-115.302h-0.014zM512.205 775.68c-0.244 0.002-0.533 0.003-0.822 0.003-66.107 0-119.752-53.359-120.215-119.357v-0.044c-0.099-1.226-0.155-2.654-0.155-4.096s0.056-2.87 0.167-4.283l-0.012 0.187c6.154-49.692 25.855-93.903 55.247-129.889l-0.361 0.456c1.938-4.845 3.128-10.454 3.276-16.323l0.001-0.061v-11.674c-0.446-15.606-10.213-28.824-23.91-34.316l-0.257-0.091-87.654-32.768c-35.348-19.13-61.817-50.864-73.645-89.035l-0.287-1.077c-4.096-34.202-9.83-96.461-11.059-108.544h512c-2.358 44.171-6.887 84.953-13.585 125.002l0.887-6.423c-10.517 34.64-33.418 62.802-63.43 79.928l-0.672 0.353-87.45 32.768c-13.944 5.437-23.696 18.647-23.961 34.169v11.91c-0.002 0.155-0.003 0.339-0.003 0.523 0 5.698 1.053 11.149 2.975 16.171l-0.104-0.31c29.139 35.428 48.917 79.578 54.965 127.994l0.126 1.234c0.143 2.196 0.224 4.761 0.224 7.345 0 64.209-50.253 116.681-113.574 120.231l-0.314 0.014h-8.602z" />
<glyph unicode="&#xe901;" glyph-name="analysis" d="M181.862 148.582v688.128h-61.44v-749.568h764.928v61.44h-703.488zM258.662 441.446h143.36v-250.88h-143.36v250.88zM455.27 525.005h143.36v-334.438h-143.36v334.438zM651.878 766.669h143.36v-576.307h-143.36v576.307z" />
<glyph unicode="&#xe902;" glyph-name="announce" d="M721.92 513.946c-67.994 124.314-151.552 187.802-186.368 141.722l3.277 3.686-326.246-343.040-43.827 1.434-48.947 1.434c-0.378 0.031-0.819 0.048-1.263 0.048-5.66 0-10.657-2.834-13.651-7.161l-0.036-0.055c-0.928-1.523-1.759-3.282-2.399-5.131l-0.059-0.194v-2.048c-0.49-1.153-0.98-2.585-1.377-4.054l-0.057-0.247v-2.867c-0.047-0.735-0.074-1.593-0.074-2.458s0.027-1.723 0.080-2.574l-0.006 0.117c0.042-0.491 0.066-1.062 0.066-1.638s-0.024-1.148-0.071-1.712l0.005 0.074c0-1.638 0-3.482 0-5.53v-5.734c-0.094-0.891-0.148-1.924-0.148-2.97s0.054-2.079 0.158-3.097l-0.011 0.128s0-1.843 0-2.662v-6.349s0-1.843 0-2.662l1.229-6.963s0-1.638 0-2.458l0.205-7.782s0 0 0-1.024c2.911-12.218 5.933-22.207 9.455-31.957l-0.649 2.056s0 0 0-1.024c2.458-7.168 5.53-14.541 8.602-21.709 0.037-0.277 0.058-0.597 0.058-0.922s-0.021-0.645-0.062-0.959l0.004 0.037c3.482-7.782 7.578-15.77 11.674-23.552 32.768-59.802 72.909-90.317 89.702-68.198l57.958 71.68 472.883 23.757c11.558 0.324 21.702 6.104 27.985 14.844l0.073 0.106c36.454 45.261 9.626 183.296-58.163 307.61zM234.291 259.584c-27.257-10.087-59.999-19.029-93.703-25.227l-3.782-0.578c-16.384 40.96-10.445 49.766-10.445 49.766l93.389 3.891 271.77 250.266 17.613-78.848zM746.291 248.934c-2.069-2.992-4.834-5.363-8.069-6.91l-0.123-0.053c-23.552-10.65-77.21 32.768-126.362 122.88-58.163 107.725-73.933 212.173-52.224 242.278 2.069 2.992 4.834 5.363 8.069 6.91l0.123 0.053c23.347 10.445 77.21-32.768 126.362-122.88 58.778-107.725 74.547-212.173 52.838-242.278zM696.32 580.096l129.638 238.387 66.355-68.813zM742.4 554.496l158.72 85.402 7.987-54.477z" />
<glyph unicode="&#xe903;" glyph-name="crm" d="M503.194 147.558h-229.786l4.71 169.37c4.733 22.924 20.055 41.487 40.511 50.612l0.449 0.179 92.57 36.25c14.919 6.342 25.19 20.873 25.19 37.803 0 0.030 0 0.060 0 0.090v-0.005 13.107c0.002 0.148 0.003 0.323 0.003 0.499 0 6.374-1.203 12.468-3.395 18.065l0.116-0.337c-30.946 39.66-51.779 88.618-57.838 142.055l-0.12 1.305c-0.629 4.775-0.988 10.295-0.988 15.9 0 70.919 57.491 128.41 128.41 128.41 68.155 0 123.908-53.097 128.15-120.181l0.019-0.372c0.293-3.556 0.461-7.698 0.461-11.878s-0.167-8.322-0.495-12.418l0.035 0.54c-6.295-54.782-27.267-103.735-58.836-143.979l0.468 0.619c-2.001-5.415-3.195-11.669-3.276-18.191v-13.143c-0.001-0.13-0.002-0.283-0.002-0.437 0-16.617 9.896-30.924 24.115-37.347l0.258-0.104 92.57-36.25c20.905-9.304 36.227-27.866 40.881-50.333l0.079-0.458 4.71-169.37zM772.506 168.038v1.024l-4.71 155.853v5.734c-7.984 34.078-31.963 61.232-63.397 73.486l-0.706 0.242c-23.514 28.71-39.257 64.62-43.544 103.971l-0.078 0.887c-0.021 0.793-0.033 1.726-0.033 2.662 0 59.061 47.878 106.939 106.939 106.939 58.124 0 105.418-46.372 106.903-104.139l0.003-0.138c0.098-0.799 0.154-1.724 0.154-2.662s-0.056-1.863-0.164-2.772l0.011 0.11c-5.408-42.942-22.85-81.046-48.797-111.725l0.259 0.314c-1.685-4.121-2.663-8.904-2.663-13.914 0-0.076 0-0.152 0.001-0.228v0.012-10.24c0.26-13.352 8.568-24.7 20.263-29.414l0.217-0.077 77.414-28.262c17.295-6.617 30.198-21.21 34.334-39.155l0.072-0.371 3.891-108.134zM47.923 168.038l3.891 108.134c4.182 18.382 17.087 33.045 34.029 39.603l0.378 0.129 77.619 27.443c11.845 4.879 20.107 16.175 20.479 29.445l0.001 0.046v10.24c0 0.046 0 0.101 0 0.156 0 5.014-0.901 9.818-2.55 14.259l0.092-0.283c-25.752 30.596-43.151 69.008-48.233 111.211l-0.1 1.019c-0.084 1.565-0.131 3.396-0.131 5.239 0 55.93 43.961 101.593 99.216 104.319l0.244 0.010h7.578c0.678 0.016 1.476 0.025 2.277 0.025 57.015 0 103.381-45.593 104.627-102.309l0.002-0.116c0-2.458 0-5.12 0-7.578-4.415-40.23-20.149-76.128-43.907-105.217l0.285 0.359c-32.122-12.625-56.077-39.822-63.962-73.226l-0.141-0.707v-5.12l-4.71-155.853v-1.024z" />
<glyph unicode="&#xe904;" glyph-name="help" d="M522.035 92.672c-0.087 0-0.19 0-0.293 0-199.183 0-360.653 161.47-360.653 360.653s161.47 360.653 360.653 360.653c199.183 0 360.653-161.47 360.653-360.653 0-99.57-40.35-189.715-105.59-254.977l0.001 0.001c-65.191-65.242-155.26-105.617-254.76-105.677h-0.012zM471.040 282.726v-80.486h83.763v80.486zM520.192 639.693c0.976 0.045 2.12 0.071 3.271 0.071 18.639 0 35.698-6.766 48.854-17.977l-0.106 0.088c12.025-11.245 19.52-27.206 19.52-44.917 0-0.985-0.023-1.965-0.069-2.939l0.005 0.138c0-30.72-12.083-51.61-53.658-93.184-33.499-27.625-54.69-69.134-54.69-115.593 0-3.934 0.152-7.832 0.45-11.689l-0.032 0.511v-14.131h61.44c0 54.272 7.373 73.318 56.73 114.278s70.042 76.186 70.042 119.808c0 75.571-59.392 124.518-151.552 124.518-1.81 0.071-3.935 0.111-6.069 0.111-37.769 0-72.579-12.669-100.412-33.99l0.395 0.291c-26.856-22.939-44.977-55.417-49.093-92.13l-0.059-0.645 76.186-17.613c0.39 23.999 9.231 45.86 23.668 62.809l-0.116-0.14c13.571 13.799 32.441 22.35 53.309 22.35 0.699 0 1.395-0.010 2.089-0.029l-0.102 0.002z" />
<glyph unicode="&#xe905;" glyph-name="list" d="M731.75 453.12c0-113.108-91.692-204.8-204.8-204.8s-204.8 91.692-204.8 204.8c0 113.108 91.692 204.8 204.8 204.8s204.8-91.692 204.8-204.8z" />
<glyph unicode="&#xe906;" glyph-name="money" d="M239.002 236.442v322.765h657.408v-322.765zM477.594 343.347h67.994v-51.405h43.213v51.405h69.222v37.683h-69.222v26.010l6.554 10.24h61.44v37.274h-36.864l31.539 49.152h-40.96l-43.213-66.97-43.008 66.97h-40.96l31.539-49.152h-36.864v-38.093h61.44l6.758-10.445v-24.986h-68.608zM174.080 272.282v351.027h657.818v-39.936h-617.882v-311.091zM109.978 378.573v308.634h602.317v-39.731h-562.381v-268.902z" />
<glyph unicode="&#xe907;" glyph-name="notice" d="M830.669 288.666h-607.437c-1.257 0.107-2.721 0.168-4.198 0.168-29.105 0-52.699-23.594-52.699-52.699 0-27.627 21.259-50.289 48.311-52.519l0.19-0.013c1.256-0.098 2.721-0.153 4.198-0.153s2.942 0.056 4.391 0.165l-0.193-0.012h607.437c1.226-0.102 2.654-0.159 4.096-0.159 29.1 0 52.691 23.59 52.691 52.691 0 27.659-21.311 50.34-48.409 52.519l-0.186 0.012c-1.231 0.196-2.65 0.307-4.096 0.307s-2.865-0.112-4.25-0.327l0.154 0.020zM801.997 350.106c-12.836 19.269-20.483 42.952-20.483 68.421 0 0.282 0.001 0.564 0.003 0.845v-0.043 115.302c-5.395 120.43-99.522 217.25-218.292 226.863l-0.844 0.055c8.855 8.795 14.336 20.978 14.336 34.441 0 0.060 0 0.12 0 0.18v-0.009c-2.601 30.064-27.647 53.483-58.163 53.483s-55.563-23.419-58.148-53.264l-0.015-0.219c0.249-14.51 6.67-27.472 16.742-36.41l0.051-0.045c-113.416-15.359-200.53-109.524-204.788-224.856l-0.012-0.424v-115.302c0.002-0.244 0.003-0.533 0.003-0.823 0-25.53-7.645-49.274-20.772-69.068l0.289 0.463-2.253-3.482h554.598zM447.078 137.523c6.027-34.586 35.822-60.545 71.68-60.545s65.653 25.959 71.617 60.109l0.063 0.435v2.662h-143.36z" />
<glyph unicode="&#xe908;" glyph-name="orders" d="M340.992 139.776c0 38.909 31.542 70.451 70.451 70.451s70.451-31.542 70.451-70.451c0-38.909-31.542-70.451-70.451-70.451v0c-38.909 0-70.451 31.542-70.451 70.451v0zM658.637 142.848c0 38.909 31.542 70.451 70.451 70.451s70.451-31.542 70.451-70.451c0-38.909-31.542-70.451-70.451-70.451v0 0c-38.909 0-70.451 31.542-70.451 70.451v0zM345.702 229.478l-139.674 541.286h-96.256v64.307h146.022l112.845-439.091h391.578l69.018 239.821h66.97l-87.654-304.333h-422.707l9.83-37.888h389.12v-64.307zM391.987 425.677v285.082h143.36v-102.4h71.27v102.4h143.36v-284.877z" />
<glyph unicode="&#xe909;" glyph-name="outside" d="M882.278 473.19c-6.92 193.596-165.419 347.938-360.017 348.16h-11.49c-193.667-6.922-348.052-165.536-348.16-360.233v-0.011c0-3.891 0-7.782 0-11.469 6.704-193.689 165.332-348.159 360.039-348.16h9.83c194.506 5.816 349.973 164.869 350.003 360.24v0.003zM307.2 670.413c27.285 28.048 59.865 50.785 96.147 66.62l1.952 0.759c-15.302-22.411-28.631-48.098-38.725-75.354l-0.801-2.47h-68.813l9.421 10.445zM268.902 621.466h84.787c-11.688-41.694-19.074-89.822-20.461-139.449l-0.019-0.839h-110.387c3.363 52.409 19.771 100.378 45.979 141.493l-0.718-1.205zM268.902 302.182c-25.49 39.91-41.898 87.879-45.216 139.412l-0.045 0.876h109.978c1.292-50.421 8.685-98.559 21.47-144.451l-0.99 4.163zM314.368 246.272c-5.734 5.53-11.264 11.469-16.589 17.408h68.198c6.441-17.698 12.929-32.289 20.262-46.369l-1.011 2.133c6.846-13.035 13.64-24.020 21.097-34.5l-0.617 0.912c-35.226 15.38-65.398 35.71-91.241 60.516l0.105-0.1zM503.603 162.509c-8.397 0-16.589 1.434-24.781 2.662-3.921 2.527-7.26 4.954-10.46 7.546l0.22-0.173c-26.873 24.558-47.861 55.095-60.908 89.536l-0.532 1.6h96.461zM503.603 302.182h-110.797c-12.578 41.727-20.421 89.836-21.694 139.579l-0.014 0.709h131.686zM503.603 481.178h-132.301c1.288 50.452 9.131 98.561 22.708 144.201l-0.999-3.913h109.773zM503.603 659.968h-96.256c4.311 10.838 8.368 19.534 12.835 27.979l-0.752-1.559c12.309 25.437 28.845 46.95 48.92 64.518l0.232 0.199c2.907 2.481 6.113 4.906 9.457 7.138l0.373 0.234c8.192 1.229 16.589 2.048 24.986 2.662zM776.806 621.466c25.522-39.9 41.936-87.876 45.217-139.422l0.044-0.866h-110.592c-1.524 50.516-8.902 98.632-21.486 144.598l1.006-4.31zM730.522 677.376c5.939-5.53 11.264-11.469 16.589-17.408h-68.198c-6.362 17.701-12.784 32.296-20.053 46.384l1.007-2.147c-6.908 13.072-13.7 24.054-21.129 34.554l0.649-0.967c35.1-15.723 65.132-36.378 90.78-61.492l-0.054 0.052zM541.286 761.139c8.397 0 16.589-1.434 24.781-2.662 3.884-2.429 7.226-4.859 10.39-7.494l-0.15 0.121c26.968-24.489 47.977-55.049 60.919-89.553l0.521-1.583h-96.461zM541.286 621.466h110.182c12.486-41.704 20.322-89.803 21.692-139.518l0.017-0.77h-131.891zM541.286 442.675h131.686c-1.269-50.517-9.113-98.699-22.708-144.406l0.999 3.913h-109.773zM625.664 237.875c-12.383-25.44-28.983-46.951-49.118-64.513l-0.239-0.204c-2.905-2.564-6.119-4.93-9.532-7l-0.298-0.168c-8.192-1.229-16.589-2.253-24.986-2.662v100.352h96.461c-4.096-9.216-8.192-18.022-12.493-26.419zM737.28 253.235c-27.285-28.048-59.865-50.785-96.147-66.62l-1.952-0.759c15.472 22.416 28.874 48.109 38.952 75.412l0.779 2.412h68.198l-9.626-10.445zM775.578 302.182h-84.173c11.703 41.76 19.090 89.96 20.462 139.663l0.018 0.83h109.773c-3.45-52.52-20.001-100.555-46.383-141.681l0.713 1.188z" />
<glyph unicode="&#xe90a;" glyph-name="payable" d="M261.12 102.502v295.731h602.522v-295.731zM479.642 200.602h61.44v-47.309h39.322v47.309h63.488v34.406h-62.259v22.938l6.144 9.421h57.344v35.021h-35.021l29.082 45.261h-37.888l-39.322-61.44-39.322 61.44h-38.093l29.082-45.261h-33.997v-34.816h56.32l6.349-9.626v-22.938h-61.44zM201.523 135.27v321.741h602.931v-36.454h-566.272v-285.286zM143.36 232.755v283.034h552.96v-36.454h-516.915v-245.76zM356.762 550.4c-7.239 0-13.107 5.868-13.107 13.107v0 0 84.173h-124.723c-7.168 0-8.192 3.072-1.843 6.963l274.432 165.888c3.236 1.738 7.079 2.758 11.162 2.758s7.926-1.021 11.29-2.821l-0.129 0.063 275.046-166.093c6.144-3.686 5.325-6.758-1.843-6.758h-124.928v-84.787c0.001-0.061 0.002-0.134 0.002-0.206 0-7.126-5.777-12.902-12.902-12.902-0.073 0-0.145 0.001-0.217 0.002h0.011z" />
<glyph unicode="&#xe90b;" glyph-name="product" d="M606.618 772.198l-440.115-6.554 205.21-164.454 165.478 1.843v-175.514h143.36v176.947l155.443 1.843v-424.55h-476.16v378.061l-193.331 161.997v-387.072l193.331-202.547h527.565v482.918l-280.781 157.082z" />
<glyph unicode="&#xe90c;" glyph-name="purchase" d="M497.869 142.234l-38.912 39.526-163.84 163.84-18.637 18.432c-23.695 23.781-40.444 54.498-46.936 88.842l-0.168 1.066-6.758 36.864-102.4 106.086 172.646 172.851 1.843-1.843 99.328-103.629 77.005-25.6-63.078-20.48-78.029-26.829c-21.626-8.052-36.751-28.522-36.751-52.525 0-6.645 1.159-13.018 3.286-18.93l-0.123 0.39 2.662-7.782c8.005-21.643 28.439-36.803 52.421-36.864h5.538c4.057 0.412 7.744 1.134 11.303 2.158l-0.448-0.11 77.005 16.794h3.482l122.88 26.624 185.139-185.344c5.57-5.243 9.039-12.664 9.039-20.896 0-15.629-12.505-28.337-28.055-28.665l-0.031-0.001c-8.578 0.032-16.327 3.551-21.91 9.212l-0.004 0.004-9.83 9.216-128.205 128.614c-2.649 2.559-6.26 4.135-10.24 4.135s-7.591-1.577-10.244-4.14l-5.116-5.116c-1.413-1.378-2.289-3.3-2.289-5.427s0.876-4.049 2.288-5.426l0.002-0.002 132.915-133.12 35.021-35.635c4.537-4.646 7.336-11.007 7.336-18.022s-2.799-13.376-7.341-18.027l-4.91-4.91c-4.592-4.574-10.926-7.401-17.92-7.401s-13.328 2.828-17.921 7.402l0.001-0.001-35.021 35.635-127.795 127.795c-2.636 2.657-6.288 4.301-10.324 4.301-0.042 0-0.085 0-0.127-0.001h0.006c-0.086 0.002-0.188 0.003-0.29 0.003-3.984 0-7.582-1.648-10.151-4.3l-0.004-0.004c-2.469-2.687-3.983-6.287-3.983-10.24s1.514-7.553 3.993-10.251l-0.010 0.011 86.426-86.426 68.198-68.403c4.585-4.625 7.419-10.993 7.419-18.022s-2.833-13.398-7.421-18.024l0.002 0.002-4.915-5.12c-4.559-4.562-10.859-7.383-17.818-7.383s-13.259 2.822-17.817 7.383v0l-27.034 27.238-122.88 122.88-4.506 4.71c-2.927 2.785-6.895 4.5-11.263 4.506h-0.001c-0.235 0.017-0.51 0.026-0.786 0.026-2.63 0-5.061-0.855-7.029-2.302l0.033 0.023c-4.033-2.72-6.65-7.272-6.65-12.435 0-2.987 0.876-5.769 2.385-8.104l-0.036 0.059c0.587-0.861 1.263-1.603 2.030-2.239l0.018-0.014 105.062-107.11c4.538-4.493 7.349-10.725 7.349-17.613s-2.81-13.12-7.347-17.611l-0.002-0.002-6.144-5.734c-3.367-3.242-7.597-5.609-12.312-6.722l-0.181-0.036h-5.12c-6.801 0.285-12.825 3.388-16.974 8.163l-0.025 0.029zM395.469 153.702l-4.915 5.12c-4.623 4.569-7.486 10.91-7.486 17.92s2.863 13.351 7.484 17.918l5.532 5.532 40.96-40.96-5.53-5.734c-4.592-4.574-10.926-7.401-17.92-7.401s-13.328 2.828-17.921 7.402l0.001-0.001zM326.246 207.974l-4.915 4.915c-4.635 4.602-7.504 10.977-7.504 18.022s2.869 13.42 7.502 18.021l13.108 13.108 40.96-40.96-12.902-13.107c-4.592-4.574-10.926-7.401-17.92-7.401s-13.328 2.828-17.921 7.402l0.001-0.001zM272.589 276.787l-4.915 5.12c-4.623 4.569-7.486 10.91-7.486 17.92s2.863 13.351 7.484 17.918l5.532 5.532 40.96-40.96-5.53-5.734c-4.592-4.574-10.926-7.401-17.92-7.401s-13.328 2.828-17.921 7.402l0.001-0.001zM652.698 483.226v0 0l-10.445 10.445-62.464 61.44-138.854-30.106h-1.638l-79.667-17.408h-6.144c-0.369-0.099-0.792-0.156-1.229-0.156s-0.86 0.057-1.263 0.164l0.034-0.008c-0.8-0.15-1.721-0.236-2.662-0.236s-1.862 0.086-2.755 0.25l0.093-0.014h-1.843c-2.508 0.857-4.673 1.895-6.69 3.151l0.136-0.079-3.891 3.277c-2.446 2.568-4.394 5.636-5.673 9.031l-0.061 0.185-2.662 7.578c-0.043 0.308-0.068 0.663-0.068 1.024s0.025 0.716 0.072 1.064l-0.005-0.040c-0.907 2.394-1.433 5.162-1.433 8.053 0 3.463 0.754 6.75 2.107 9.706l-0.060-0.146c0.554 1.563 1.245 2.917 2.088 4.159l-0.040-0.063c1.010 1.283 2.084 2.421 3.25 3.458l0.027 0.023c2.339 2.14 5.14 3.818 8.232 4.867l0.164 0.048 306.995 101.171 104.243 105.677 172.442-172.646-103.834-106.086-6.554-36.864c-6.404-33.897-22.012-63.406-44.104-86.707l0.072 0.077z" />
<glyph unicode="&#xe90d;" glyph-name="receivable" d="M491.52 105.165l-274.842 166.093c-6.144 3.686-5.325 6.758 1.843 6.758h124.928v84.992c0 7.239 5.868 13.107 13.107 13.107v0h292.864c7.239 0 13.107-5.868 13.107-13.107v0-84.992h124.723c7.373 0 8.192-3.072 2.048-6.758l-275.046-166.093c-3.269-1.738-7.147-2.759-11.264-2.759s-7.995 1.021-11.396 2.823l0.132-0.064zM260.71 409.907v295.936h602.726v-295.936zM479.437 508.006h61.44v-47.309h39.322v47.514h63.488v34.406h-62.464v22.938l6.144 9.421h57.344v34.816h-35.021l29.082 45.261h-37.888l-39.322-61.44-39.322 61.44h-38.093l29.082-45.261h-33.792v-34.611h56.32l6.144-9.626v-22.938h-61.44zM201.318 442.88v321.741h602.931v-36.659h-566.477v-285.082zM143.36 540.365v283.034h551.117v-36.659h-515.482v-245.76z" />
<glyph unicode="&#xe90e;" glyph-name="search" d="M849.92 47.616l-147.251 254.976c-11.882-9.295-25.256-18.426-39.206-26.687l-1.754-0.961c-12.068-6.754-26.633-13.636-41.668-19.584l-2.569-0.896 147.251-255.181zM761.856 732.467c-55.382 95.206-156.928 158.189-273.184 158.189-173.96 0-314.982-141.022-314.982-314.982s141.022-314.982 314.982-314.982c40.879 0 79.94 7.787 115.779 21.96l-2.133-0.744c118.847 46.793 201.429 160.583 201.429 293.661 0 57.75-15.552 111.868-42.695 158.394l0.806-1.495zM709.632 515.789c-11.949-43.388-35.272-80.311-66.568-108.573l-0.197-0.175c-11.662-10.587-24.595-20.196-38.421-28.469l-1.105-0.613c-32.81-19.293-72.272-30.689-114.396-30.689-126.228 0-228.557 102.328-228.557 228.557s102.328 228.557 228.557 228.557c84.165 0 157.705-45.493 197.37-113.231l0.584-1.079c19.361-32.747 30.801-72.167 30.801-114.259 0-21.358-2.945-42.028-8.452-61.626l0.384 1.601z" />
<glyph unicode="&#xe90f;" glyph-name="shipment" d="M686.49 204.902c2.209 31.33 28.167 55.91 59.866 55.91 33.141 0 60.006-26.866 60.006-60.006 0-33.091-26.786-59.927-59.859-60.006h-0.008c-33.336 0.77-60.065 27.976-60.065 61.425 0 0.942 0.021 1.879 0.063 2.81l-0.005-0.132zM246.989 204.902c-0.022 0.614-0.035 1.335-0.035 2.060 0 33.512 26.831 60.758 60.183 61.427l0.062 0.001c35.233 0 63.795-28.562 63.795-63.795s-28.562-63.795-63.795-63.795v0c-33.425 0.657-60.269 27.908-60.269 61.429 0 0.94 0.021 1.876 0.063 2.806l-0.005-0.132zM811.827 253.645c-13.954 21.732-37.998 35.926-65.358 35.926-15.334 0-29.627-4.458-41.653-12.15l0.311 0.186c-9.696-6.254-17.708-14.266-23.775-23.653l-0.187-0.308h-308.838c-13.98 21.576-37.938 35.65-65.182 35.65-15.152 0-29.288-4.353-41.224-11.877l0.32 0.188c-9.696-6.254-17.708-14.266-23.775-23.653l-0.187-0.308h-78.438c-9.873 0.105-17.836 8.133-17.836 18.021 0 0.288 0.007 0.575 0.020 0.86l-0.002-0.040v216.474c0.047 4.562 1.579 8.756 4.133 12.135l-0.037-0.051 105.267 147.456c3.308 3.985 8.195 6.56 13.689 6.757l0.033 0.001h137.011c9.935-0.45 17.819-8.614 17.819-18.619 0-0.078 0-0.157-0.001-0.235v0.012-281.395c-0.003-0.125-0.005-0.272-0.005-0.42 0-9.965 7.908-18.084 17.791-18.421l0.031-0.001h438.886c9.83 0 17.818-27.853 17.818-38.298v-25.395c0.007-0.184 0.011-0.401 0.011-0.619 0-9.926-7.935-17.999-17.807-18.222h-0.021zM277.504 595.661l-73.933-96.666c-2.562-3.064-4.118-7.047-4.118-11.393 0-0.315 0.008-0.628 0.024-0.938l-0.002 0.044v-13.107c-0.007-0.184-0.010-0.401-0.010-0.619 0-10.152 8.118-18.409 18.217-18.632h132.322c10.23 0.227 18.437 8.574 18.437 18.837 0 0.146-0.002 0.291-0.005 0.435v-0.022 109.773c0.003 0.125 0.005 0.272 0.005 0.419 0 10.305-8.183 18.698-18.406 19.036l-0.031 0.001h-58.163c-5.839-0.017-11.022-2.808-14.304-7.124l-0.032-0.044zM469.606 363.008c-11.95 0.34-21.508 10.109-21.508 22.11 0 0.147 0.001 0.294 0.004 0.44v-0.022 376.013c-0.006 0.184-0.009 0.401-0.009 0.618 0 11.962 9.584 21.685 21.492 21.91h407.983c11.474-0.77 20.49-10.266 20.49-21.867 0-0.232-0.004-0.464-0.011-0.694l0.001 0.034v-376.218c0.003-0.14 0.005-0.305 0.005-0.47 0-11.641-8.993-21.181-20.41-22.053l-0.075-0.005z" />
<glyph unicode="&#xe910;" glyph-name="stock" d="M152.781 121.754v67.994h40.96v481.075l333.21 131.072 333.21-131.072v-481.075h40.96v-67.994zM249.037 176.64h555.827v440.115h-555.827zM619.725 202.24v120.422h145.818v-120.422zM649.421 232.141h86.426v60.621h-28.058v-25.395h-29.696v25.395h-28.672zM454.042 202.24v207.462h145.613v-207.462zM483.738 232.141h86.426v60.621h-28.467v-25.395h-29.696v25.395h-28.262zM483.738 318.976h86.426v60.826h-28.467v-27.034h-29.696v27.034h-28.262zM288.358 202.24v294.298h145.613v-294.298zM318.054 232.141h86.426v60.621h-28.467v-25.395h-29.901v25.395h-28.058zM318.054 319.181h86.426v60.621h-28.467v-27.034h-29.901v27.034h-28.058zM318.054 406.221h86.426v60.621h-28.467v-22.938h-29.901v22.938h-28.058z" />
</font></defs></svg>